{
	"forge_marker": 1,
	"defaults": {
		"model": "speedsterheroes:savitarBlade.obj"
	},

	"variants": {
		"inventory": [{
				"transform": {
					"thirdperson_lefthand": {
						"rotation": [{
								"x": -90
							},{
								"y": 180
							},{
								"z": 0
							}],

						"translation": [0.08,-0.12,0.0],

						"scale": 0.0005
					},

					"thirdperson_righthand": {
						"rotation": [{
								"x": -90
							},{
								"y": 0
							},{
								"z": 0
							}],

						"translation": [0.08,-0.12,0.0],

						"scale": 0.0005
					},

					"gui": {
						"rotation": [{
								"x": 20
							},{
								"y": 45
							},{
								"z": -60
							}],

						"translation": [-0.2,-0.3,0],

						"scale": 0.0007
					},

					"fixed": {
						"rotation": [{
								"x": 0
							},{
								"y": 0
							},{
								"z": 0
							}],
							
						"translation": [0,-0.3,0],

						"scale": 0.0007
					},

					"firstperson_righthand": {
						"rotation": [{
								"x": 0
							},{
								"y": -90
							},{
								"z": 90
							}],

						"translation": [0,0.1,0],

						"scale": 0.001
					},

					"firstperson_lefthand": {
						"rotation": [{
								"x": 0
							},{
								"y": 90
							},{
								"z": -90
							}],

						"translation": [0,0.1,0],

						"scale": 0.001
					},

					"ground": {
						"rotation": [{
								"x": 0
							},{
								"y": 0
							},{
								"z": 0
							}],

						"scale": 0.0003
					}
				}
			}]
	}
}